Session 4: Homework 2
…
1 Climate change and temperature anomalies

# Load the file
weather <- 
  read_csv("https://data.giss.nasa.gov/gistemp/tabledata_v4/NH.Ts+dSST.csv", 
           skip = 1, 
           na = "***")

tidyweather <- weather %>% 
    select(1:13) %>% 
    pivot_longer(cols=2:13, names_to="month", values_to = "delta")

tidyweather

## # A tibble: 1,704 x 3
##     Year month delta
##    <dbl> <chr> <dbl>
##  1  1880 Jan   -0.34
##  2  1880 Feb   -0.5 
##  3  1880 Mar   -0.22
##  4  1880 Apr   -0.29
##  5  1880 May   -0.05
##  6  1880 Jun   -0.15
##  7  1880 Jul   -0.17
##  8  1880 Aug   -0.25
##  9  1880 Sep   -0.22
## 10  1880 Oct   -0.31
## # ... with 1,694 more rows
…
What is the data showing us? You have to explain what you have done, and the interpretation of the result. One paragraph max, please!

We found that from 2011 to present, the average annual delta has been +1.06. This means that temperatures are now, on an average, 1.06 degrees higher than they were in the base period (1951-1980s). Furthermore, on an year to year basis, this anomaly has a standard deviation of just 0.213, so with 95% confidence we can say that the average annual delta would be between 0.942 and 1.18. Based on NASAs statement, this is a very concerning statistic as it signifies we have produced a vast amount of heat to result in such a high delta value.

2 Global warming and political views (GSS)

global_warming_pew <- read_csv(here::here("data", "global_warming_pew.csv"))
global_warming1 <- global_warming_pew[!(global_warming_pew$response == "Don't know / refuse to answer"),]
global_warming1

## # A tibble: 2,117 x 2
##    party_or_ideology       response        
##    <chr>                   <chr>           
##  1 Conservative Republican Earth is warming
##  2 Conservative Republican Earth is warming
##  3 Conservative Republican Earth is warming
##  4 Conservative Republican Earth is warming
##  5 Conservative Republican Earth is warming
##  6 Conservative Republican Earth is warming
##  7 Conservative Republican Earth is warming
##  8 Conservative Republican Earth is warming
##  9 Conservative Republican Earth is warming
## 10 Conservative Republican Earth is warming
## # ... with 2,107 more rows
…
